cicReal/simulation/test/sim_build/cic_waves.vcd
$date
  Fri Apr 12 11:43:20 2024
$end
$version
  GHDL v0
$end
$timescale
  1 fs
$end
$scope module standard $end
$upscope $end
$scope module std_logic_1164 $end
$upscope $end
$scope module numeric_std $end
$upscope $end
$scope module math_real $end
$upscope $end
$scope module common $end
$upscope $end
$scope module cicreal_top $end
$var reg 1 ! reset $end
$var reg 1 " clk $end
$var reg 1 # clk_axi $end
$var reg 1 $ data_en_i $end
$var reg 16 % data_i[15:0] $end
$var reg 23 & data_o[22:0] $end
$var reg 1 ' data_en_o $end
$var reg 16 ( data_d0_s[15:0] $end
$var reg 34 ) data_se_s[33:0] $end
$comment int_data_s is not handled $end
$var reg 34 * int_out_s[33:0] $end
$var reg 1 + sample_s $end
$comment comb_data_s is not handled $end
$var reg 34 , comb_out_s[33:0] $end
$scope module is_signed_format $end
$upscope $end
$scope module int_cascade(1) $end
$scope module gen_int_1 $end
$scope module int_1 $end
$var reg 1 - clk $end
$var reg 34 . data_i[33:0] $end
$var reg 34 / data_o[33:0] $end
$var reg 34 0 int_r[33:0] $end
$var reg 34 1 int_out[33:0] $end
$upscope $end
$upscope $end
$upscope $end
$scope module int_cascade(2) $end
$scope module gen_int_i $end
$scope module int_1 $end
$var reg 1 2 clk $end
$var reg 34 3 data_i[33:0] $end
$var reg 34 4 data_o[33:0] $end
$var reg 34 5 int_r[33:0] $end
$var reg 34 6 int_out[33:0] $end
$upscope $end
$upscope $end
$upscope $end
$scope module int_cascade(3) $end
$scope module gen_int_order $end
$scope module int_1 $end
$var reg 1 7 clk $end
$var reg 34 8 data_i[33:0] $end
$var reg 34 9 data_o[33:0] $end
$var reg 34 : int_r[33:0] $end
$var reg 34 ; int_out[33:0] $end
$upscope $end
$upscope $end
$upscope $end
$scope module comb_cascade(1) $end
$scope module gen_comb_1 $end
$scope module cmb_1 $end
$var reg 1 < clk $end
$var reg 34 = data_i[33:0] $end
$var reg 34 > data_o[33:0] $end
$var reg 1 ? sample_i $end
$var reg 34 @ comb_r[33:0] $end
$var reg 34 A comb_delay_r[33:0] $end
$var reg 34 B comb_out[33:0] $end
$upscope $end
$upscope $end
$upscope $end
$scope module comb_cascade(2) $end
$scope module gen_comb_i $end
$scope module cmb_1 $end
$var reg 1 C clk $end
$var reg 34 D data_i[33:0] $end
$var reg 34 E data_o[33:0] $end
$var reg 1 F sample_i $end
$var reg 34 G comb_r[33:0] $end
$var reg 34 H comb_delay_r[33:0] $end
$var reg 34 I comb_out[33:0] $end
$upscope $end
$upscope $end
$upscope $end
$scope module comb_cascade(3) $end
$scope module gen_comb_order $end
$scope module cmb_1 $end
$var reg 1 J clk $end
$var reg 34 K data_i[33:0] $end
$var reg 34 L data_o[33:0] $end
$var reg 1 M sample_i $end
$var reg 34 N comb_r[33:0] $end
$var reg 34 O comb_delay_r[33:0] $end
$var reg 34 P comb_out[33:0] $end
$upscope $end
$upscope $end
$upscope $end
$upscope $end
$enddefinitions $end
#0
1!
1"
U#
U$
b0000000000000000 %
b00000000000000000000000 &
0'
b0000000000000000 (
b0000000000000000000000000000000000 )
b0000000000000000000000000000000000 *
0+
b0000000000000000000000000000000000 ,
1-
b0000000000000000000000000000000000 .
b0000000000000000000000000000000000 /
b0000000000000000000000000000000000 0
b0000000000000000000000000000000000 1
12
b0000000000000000000000000000000000 3
b0000000000000000000000000000000000 4
b0000000000000000000000000000000000 5
b0000000000000000000000000000000000 6
17
b0000000000000000000000000000000000 8
b0000000000000000000000000000000000 9
b0000000000000000000000000000000000 :
b0000000000000000000000000000000000 ;
1<
b0000000000000000000000000000000000 =
b0000000000000000000000000000000000 >
0?
b0000000000000000000000000000000000 @
b0000000000000000000000000000000000 A
b0000000000000000000000000000000000 B
1C
b0000000000000000000000000000000000 D
b0000000000000000000000000000000000 E
0F
b0000000000000000000000000000000000 G
b0000000000000000000000000000000000 H
b0000000000000000000000000000000000 I
1J
b0000000000000000000000000000000000 K
b0000000000000000000000000000000000 L
0M
b0000000000000000000000000000000000 N
b0000000000000000000000000000000000 O
b0000000000000000000000000000000000 P
#500000
0!
0"
0-
02
07
0<
0C
0J
#500020
#1000000
1!
1"
1-
12
17
1<
1C
1J
#1500000
0"
0-
02
07
0<
0C
0J
#2000000
1"
b0000010000000000 %
b0000010000000000 (
b0000000000000000000000010000000000 )
1-
b0000000000000000000000010000000000 .
12
17
1<
1C
1J
#2500000
0"
0-
02
07
0<
0C
0J
#3000000
1"
b0000000000000000 %
b0000000000000000 (
b0000000000000000000000000000000000 )
1-
b0000000000000000000000000000000000 .
b0000000000000000000000010000000000 0
12
17
1<
1C
1J
#3500000
0"
0-
02
07
0<
0C
0J
#4000000
1"
1-
b0000000000000000000000010000000000 /
b0000000000000000000000000000000000 0
b0000000000000000000000010000000000 1
12
b0000000000000000000000010000000000 3
17
1<
1C
1J
#4500000
0"
0-
02
07
0<
0C
0J
#5000000
1"
1-
12
b0000000000000000000000010000000000 5
17
1<
1C
1J
#5500000
0"
0-
02
07
0<
0C
0J
#6000000
1"
1-
12
b0000000000000000000000010000000000 4
b0000000000000000000000010000000000 6
17
b0000000000000000000000010000000000 8
1<
1C
1J
#6500000
0"
0-
02
07
0<
0C
0J
#7000000
1"
1-
12
b0000000000000000000000100000000000 4
b0000000000000000000000100000000000 6
17
b0000000000000000000000100000000000 8
b0000000000000000000000010000000000 :
1<
1C
1J
#7500000
0"
0-
02
07
0<
0C
0J
#8000000
1"
b0000000000000000000000010000000000 *
1-
12
b0000000000000000000000110000000000 4
b0000000000000000000000110000000000 6
17
b0000000000000000000000110000000000 8
b0000000000000000000000010000000000 9
b0000000000000000000000100000000000 :
b0000000000000000000000010000000000 ;
1<
b0000000000000000000000010000000000 =
1C
1J
#8500000
0"
0-
02
07
0<
0C
0J
#9000000
1"
b0000000000000000000000110000000000 *
1-
12
b0000000000000000000001000000000000 4
b0000000000000000000001000000000000 6
17
b0000000000000000000001000000000000 8
b0000000000000000000000110000000000 9
b0000000000000000000000110000000000 :
b0000000000000000000000110000000000 ;
1<
b0000000000000000000000110000000000 =
1C
1J
#9500000
0"
0-
02
07
0<
0C
0J
#10000000
1"
b0000000000000000000001100000000000 *
1-
12
b0000000000000000000001010000000000 4
b0000000000000000000001010000000000 6
17
b0000000000000000000001010000000000 8
b0000000000000000000001100000000000 9
b0000000000000000000001000000000000 :
b0000000000000000000001100000000000 ;
1<
b0000000000000000000001100000000000 =
1C
1J
#10500000
0"
0-
02
07
0<
0C
0J
#11000000
1"
b0000000000000000000010100000000000 *
1-
12
b0000000000000000000001100000000000 4
b0000000000000000000001100000000000 6
17
b0000000000000000000001100000000000 8
b0000000000000000000010100000000000 9
b0000000000000000000001010000000000 :
b0000000000000000000010100000000000 ;
1<
b0000000000000000000010100000000000 =
1C
1J
#11500000
0"
0-
02
07
0<
0C
0J
#12000000
1"
b0000000000000000000011110000000000 *
1-
12
b0000000000000000000001110000000000 4
b0000000000000000000001110000000000 6
17
b0000000000000000000001110000000000 8
b0000000000000000000011110000000000 9
b0000000000000000000001100000000000 :
b0000000000000000000011110000000000 ;
1<
b0000000000000000000011110000000000 =
1C
1J
#12500000
0"
0-
02
07
0<
0C
0J
#13000000
1"
b0000000000000000000101010000000000 *
1-
12
b0000000000000000000010000000000000 4
b0000000000000000000010000000000000 6
17
b0000000000000000000010000000000000 8
b0000000000000000000101010000000000 9
b0000000000000000000001110000000000 :
b0000000000000000000101010000000000 ;
1<
b0000000000000000000101010000000000 =
1C
1J
#13500000
0"
0-
02
07
0<
0C
0J
#14000000
1"
b0000000000000000000111000000000000 *
1-
12
b0000000000000000000010010000000000 4
b0000000000000000000010010000000000 6
17
b0000000000000000000010010000000000 8
b0000000000000000000111000000000000 9
b0000000000000000000010000000000000 :
b0000000000000000000111000000000000 ;
1<
b0000000000000000000111000000000000 =
1C
1J
#14500000
0"
0-
02
07
0<
0C
0J
#15000000
1"
b0000000000000000001001000000000000 *
1-
12
b0000000000000000000010100000000000 4
b0000000000000000000010100000000000 6
17
b0000000000000000000010100000000000 8
b0000000000000000001001000000000000 9
b0000000000000000000010010000000000 :
b0000000000000000001001000000000000 ;
1<
b0000000000000000001001000000000000 =
1C
1J
#15500000
0"
0-
02
07
0<
0C
0J
#16000000
1"
b0000000000000000001011010000000000 *
1-
12
b0000000000000000000010110000000000 4
b0000000000000000000010110000000000 6
17
b0000000000000000000010110000000000 8
b0000000000000000001011010000000000 9
b0000000000000000000010100000000000 :
b0000000000000000001011010000000000 ;
1<
b0000000000000000001011010000000000 =
1C
1J
#16500000
0"
0-
02
07
0<
0C
0J
#17000000
1"
b0000000000000000001101110000000000 *
1-
12
b0000000000000000000011000000000000 4
b0000000000000000000011000000000000 6
17
b0000000000000000000011000000000000 8
b0000000000000000001101110000000000 9
b0000000000000000000010110000000000 :
b0000000000000000001101110000000000 ;
1<
b0000000000000000001101110000000000 =
1C
1J
#17500000
0"
0-
02
07
0<
0C
0J
#18000000
1"
b0000000000000000010000100000000000 *
1-
12
b0000000000000000000011010000000000 4
b0000000000000000000011010000000000 6
17
b0000000000000000000011010000000000 8
b0000000000000000010000100000000000 9
b0000000000000000000011000000000000 :
b0000000000000000010000100000000000 ;
1<
b0000000000000000010000100000000000 =
1C
1J
#18500000
0"
0-
02
07
0<
0C
0J
#19000000
1"
b0000000000000000010011100000000000 *
1-
12
b0000000000000000000011100000000000 4
b0000000000000000000011100000000000 6
17
b0000000000000000000011100000000000 8
b0000000000000000010011100000000000 9
b0000000000000000000011010000000000 :
b0000000000000000010011100000000000 ;
1<
b0000000000000000010011100000000000 =
1C
1J
#19500000
0"
0-
02
07
0<
0C
0J
#20000000
1"
b0000000000000000010110110000000000 *
1-
12
b0000000000000000000011110000000000 4
b0000000000000000000011110000000000 6
17
b0000000000000000000011110000000000 8
b0000000000000000010110110000000000 9
b0000000000000000000011100000000000 :
b0000000000000000010110110000000000 ;
1<
b0000000000000000010110110000000000 =
1C
1J
#20500000
0"
0-
02
07
0<
0C
0J
#21000000
1"
b0000000000000000011010010000000000 *
1-
12
b0000000000000000000100000000000000 4
b0000000000000000000100000000000000 6
17
b0000000000000000000100000000000000 8
b0000000000000000011010010000000000 9
b0000000000000000000011110000000000 :
b0000000000000000011010010000000000 ;
1<
b0000000000000000011010010000000000 =
1C
1J
#21500000
0"
0-
02
07
0<
0C
0J
#22000000
1"
b0000000000000000011110000000000000 *
1-
12
b0000000000000000000100010000000000 4
b0000000000000000000100010000000000 6
17
b0000000000000000000100010000000000 8
b0000000000000000011110000000000000 9
b0000000000000000000100000000000000 :
b0000000000000000011110000000000000 ;
1<
b0000000000000000011110000000000000 =
1C
1J
#22500000
0"
0-
02
07
0<
0C
0J
#23000000
1"
b0000000000000000100010000000000000 *
1-
12
b0000000000000000000100100000000000 4
b0000000000000000000100100000000000 6
17
b0000000000000000000100100000000000 8
b0000000000000000100010000000000000 9
b0000000000000000000100010000000000 :
b0000000000000000100010000000000000 ;
1<
b0000000000000000100010000000000000 =
1C
1J
#23500000
0"
0-
02
07
0<
0C
0J
#24000000
1"
b0000000000000000100110010000000000 *
1-
12
b0000000000000000000100110000000000 4
b0000000000000000000100110000000000 6
17
b0000000000000000000100110000000000 8
b0000000000000000100110010000000000 9
b0000000000000000000100100000000000 :
b0000000000000000100110010000000000 ;
1<
b0000000000000000100110010000000000 =
1C
1J
#24500000
0"
0-
02
07
0<
0C
0J
#25000000
1"
b0000000000000000101010110000000000 *
1-
12
b0000000000000000000101000000000000 4
b0000000000000000000101000000000000 6
17
b0000000000000000000101000000000000 8
b0000000000000000101010110000000000 9
b0000000000000000000100110000000000 :
b0000000000000000101010110000000000 ;
1<
b0000000000000000101010110000000000 =
1C
1J
#25500000
0"
0-
02
07
0<
0C
0J
#26000000
1"
b0000000000000000101111100000000000 *
1-
12
b0000000000000000000101010000000000 4
b0000000000000000000101010000000000 6
17
b0000000000000000000101010000000000 8
b0000000000000000101111100000000000 9
b0000000000000000000101000000000000 :
b0000000000000000101111100000000000 ;
1<
b0000000000000000101111100000000000 =
1C
1J
#26500000
0"
0-
02
07
0<
0C
0J
#27000000
1"
b0000000000000000110100100000000000 *
1-
12
b0000000000000000000101100000000000 4
b0000000000000000000101100000000000 6
17
b0000000000000000000101100000000000 8
b0000000000000000110100100000000000 9
b0000000000000000000101010000000000 :
b0000000000000000110100100000000000 ;
1<
b0000000000000000110100100000000000 =
1C
1J
#27500000
0"
0-
02
07
0<
0C
0J
#28000000
1"
b0000000000000000111001110000000000 *
1-
12
b0000000000000000000101110000000000 4
b0000000000000000000101110000000000 6
17
b0000000000000000000101110000000000 8
b0000000000000000111001110000000000 9
b0000000000000000000101100000000000 :
b0000000000000000111001110000000000 ;
1<
b0000000000000000111001110000000000 =
1C
1J
#28500000
0"
0-
02
07
0<
0C
0J
#29000000
1"
b0000000000000000111111010000000000 *
1-
12
b0000000000000000000110000000000000 4
b0000000000000000000110000000000000 6
17
b0000000000000000000110000000000000 8
b0000000000000000111111010000000000 9
b0000000000000000000101110000000000 :
b0000000000000000111111010000000000 ;
1<
b0000000000000000111111010000000000 =
1C
1J
#29500000
0"
0-
02
07
0<
0C
0J
#30000000
1"
b0000000000000001000101000000000000 *
1-
12
b0000000000000000000110010000000000 4
b0000000000000000000110010000000000 6
17
b0000000000000000000110010000000000 8
b0000000000000001000101000000000000 9
b0000000000000000000110000000000000 :
b0000000000000001000101000000000000 ;
1<
b0000000000000001000101000000000000 =
1C
1J
#30500000
0"
0-
02
07
0<
0C
0J
#31000000
1"
b0000000000000001001011000000000000 *
1-
12
b0000000000000000000110100000000000 4
b0000000000000000000110100000000000 6
17
b0000000000000000000110100000000000 8
b0000000000000001001011000000000000 9
b0000000000000000000110010000000000 :
b0000000000000001001011000000000000 ;
1<
b0000000000000001001011000000000000 =
1C
1J
#31500000
0"
0-
02
07
0<
0C
0J
#32000000
1"
b0000000000000001010001010000000000 *
1-
12
b0000000000000000000110110000000000 4
b0000000000000000000110110000000000 6
17
b0000000000000000000110110000000000 8
b0000000000000001010001010000000000 9
b0000000000000000000110100000000000 :
b0000000000000001010001010000000000 ;
1<
b0000000000000001010001010000000000 =
1C
1J
#32500000
0"
0-
02
07
0<
0C
0J
#33000000
1"
b0000000000000001010111110000000000 *
1-
12
b0000000000000000000111000000000000 4
b0000000000000000000111000000000000 6
17
b0000000000000000000111000000000000 8
b0000000000000001010111110000000000 9
b0000000000000000000110110000000000 :
b0000000000000001010111110000000000 ;
1<
b0000000000000001010111110000000000 =
1C
1J
#33500000
0"
0-
02
07
0<
0C
0J
#34000000
1"
b0000000000000001011110100000000000 *
1-
12
b0000000000000000000111010000000000 4
b0000000000000000000111010000000000 6
17
b0000000000000000000111010000000000 8
b0000000000000001011110100000000000 9
b0000000000000000000111000000000000 :
b0000000000000001011110100000000000 ;
1<
b0000000000000001011110100000000000 =
1C
1J
#34500000
0"
0-
02
07
0<
0C
0J
#35000000
1"
b0000000000000001100101100000000000 *
1-
12
b0000000000000000000111100000000000 4
b0000000000000000000111100000000000 6
17
b0000000000000000000111100000000000 8
b0000000000000001100101100000000000 9
b0000000000000000000111010000000000 :
b0000000000000001100101100000000000 ;
1<
b0000000000000001100101100000000000 =
1C
1J
#35500000
0"
0-
02
07
0<
0C
0J
#36000000
1"
b0000000000000001101100110000000000 *
1-
12
b0000000000000000000111110000000000 4
b0000000000000000000111110000000000 6
17
b0000000000000000000111110000000000 8
b0000000000000001101100110000000000 9
b0000000000000000000111100000000000 :
b0000000000000001101100110000000000 ;
1<
b0000000000000001101100110000000000 =
1C
1J
#36500000
0"
0-
02
07
0<
0C
0J
#37000000
1"
b0000000000000001110100010000000000 *
1-
12
b0000000000000000001000000000000000 4
b0000000000000000001000000000000000 6
17
b0000000000000000001000000000000000 8
b0000000000000001110100010000000000 9
b0000000000000000000111110000000000 :
b0000000000000001110100010000000000 ;
1<
b0000000000000001110100010000000000 =
1C
1J
#37500000
0"
0-
02
07
0<
0C
0J
#38000000
1"
b0000000000000001111100000000000000 *
1-
12
b0000000000000000001000010000000000 4
b0000000000000000001000010000000000 6
17
b0000000000000000001000010000000000 8
b0000000000000001111100000000000000 9
b0000000000000000001000000000000000 :
b0000000000000001111100000000000000 ;
1<
b0000000000000001111100000000000000 =
1C
1J
#38500000
0"
0-
02
07
0<
0C
0J
#39000000
1"
b0000000000000010000100000000000000 *
1-
12
b0000000000000000001000100000000000 4
b0000000000000000001000100000000000 6
17
b0000000000000000001000100000000000 8
b0000000000000010000100000000000000 9
b0000000000000000001000010000000000 :
b0000000000000010000100000000000000 ;
1<
b0000000000000010000100000000000000 =
1C
1J
#39500000
0"
0-
02
07
0<
0C
0J
#40000000
1"
b0000000000000010001100010000000000 *
1-
12
b0000000000000000001000110000000000 4
b0000000000000000001000110000000000 6
17
b0000000000000000001000110000000000 8
b0000000000000010001100010000000000 9
b0000000000000000001000100000000000 :
b0000000000000010001100010000000000 ;
1<
b0000000000000010001100010000000000 =
1C
1J
#40500000
0"
0-
02
07
0<
0C
0J
#41000000
1"
b0000000000000010010100110000000000 *
1-
12
b0000000000000000001001000000000000 4
b0000000000000000001001000000000000 6
17
b0000000000000000001001000000000000 8
b0000000000000010010100110000000000 9
b0000000000000000001000110000000000 :
b0000000000000010010100110000000000 ;
1<
b0000000000000010010100110000000000 =
1C
1J
#41500000
0"
0-
02
07
0<
0C
0J
#42000000
1"
b0000000000000010011101100000000000 *
1-
12
b0000000000000000001001010000000000 4
b0000000000000000001001010000000000 6
17
b0000000000000000001001010000000000 8
b0000000000000010011101100000000000 9
b0000000000000000001001000000000000 :
b0000000000000010011101100000000000 ;
1<
b0000000000000010011101100000000000 =
1C
1J
#42500000
0"
0-
02
07
0<
0C
0J
#43000000
1"
b0000000000000010100110100000000000 *
1-
12
b0000000000000000001001100000000000 4
b0000000000000000001001100000000000 6
17
b0000000000000000001001100000000000 8
b0000000000000010100110100000000000 9
b0000000000000000001001010000000000 :
b0000000000000010100110100000000000 ;
1<
b0000000000000010100110100000000000 =
1C
1J
#43500000
0"
0-
02
07
0<
0C
0J
#44000000
1"
b0000000000000010101111110000000000 *
1-
12
b0000000000000000001001110000000000 4
b0000000000000000001001110000000000 6
17
b0000000000000000001001110000000000 8
b0000000000000010101111110000000000 9
b0000000000000000001001100000000000 :
b0000000000000010101111110000000000 ;
1<
b0000000000000010101111110000000000 =
1C
1J
#44500000
0"
0-
02
07
0<
0C
0J
#45000000
1"
b0000000000000010111001010000000000 *
1-
12
b0000000000000000001010000000000000 4
b0000000000000000001010000000000000 6
17
b0000000000000000001010000000000000 8
b0000000000000010111001010000000000 9
b0000000000000000001001110000000000 :
b0000000000000010111001010000000000 ;
1<
b0000000000000010111001010000000000 =
1C
1J
#45500000
0"
0-
02
07
0<
0C
0J
#46000000
1"
b0000000000000011000011000000000000 *
1-
12
b0000000000000000001010010000000000 4
b0000000000000000001010010000000000 6
17
b0000000000000000001010010000000000 8
b0000000000000011000011000000000000 9
b0000000000000000001010000000000000 :
b0000000000000011000011000000000000 ;
1<
b0000000000000011000011000000000000 =
1C
1J
#46500000
0"
0-
02
07
0<
0C
0J
#47000000
1"
b0000000000000011001101000000000000 *
1-
12
b0000000000000000001010100000000000 4
b0000000000000000001010100000000000 6
17
b0000000000000000001010100000000000 8
b0000000000000011001101000000000000 9
b0000000000000000001010010000000000 :
b0000000000000011001101000000000000 ;
1<
b0000000000000011001101000000000000 =
1C
1J
#47500000
0"
0-
02
07
0<
0C
0J
#48000000
1"
b0000000000000011010111010000000000 *
1-
12
b0000000000000000001010110000000000 4
b0000000000000000001010110000000000 6
17
b0000000000000000001010110000000000 8
b0000000000000011010111010000000000 9
b0000000000000000001010100000000000 :
b0000000000000011010111010000000000 ;
1<
b0000000000000011010111010000000000 =
1C
1J
#48500000
0"
0-
02
07
0<
0C
0J
#49000000
1"
b0000000000000011100001110000000000 *
1-
12
b0000000000000000001011000000000000 4
b0000000000000000001011000000000000 6
17
b0000000000000000001011000000000000 8
b0000000000000011100001110000000000 9
b0000000000000000001010110000000000 :
b0000000000000011100001110000000000 ;
1<
b0000000000000011100001110000000000 =
1C
1J
#49500000
0"
0-
02
07
0<
0C
0J
#50000000
1"
b0000000000000011101100100000000000 *
1-
12
b0000000000000000001011010000000000 4
b0000000000000000001011010000000000 6
17
b0000000000000000001011010000000000 8
b0000000000000011101100100000000000 9
b0000000000000000001011000000000000 :
b0000000000000011101100100000000000 ;
1<
b0000000000000011101100100000000000 =
1C
1J
#50500000
0"
0-
02
07
0<
0C
0J
#51000000
1"
b0000000000000011110111100000000000 *
1-
12
b0000000000000000001011100000000000 4
b0000000000000000001011100000000000 6
17
b0000000000000000001011100000000000 8
b0000000000000011110111100000000000 9
b0000000000000000001011010000000000 :
b0000000000000011110111100000000000 ;
1<
b0000000000000011110111100000000000 =
1C
1J
#51500000
0"
0-
02
07
0<
0C
0J
#52000000
1"
b0000000000000100000010110000000000 *
1-
12
b0000000000000000001011110000000000 4
b0000000000000000001011110000000000 6
17
b0000000000000000001011110000000000 8
b0000000000000100000010110000000000 9
b0000000000000000001011100000000000 :
b0000000000000100000010110000000000 ;
1<
b0000000000000100000010110000000000 =
1C
1J
#52500000
0"
0-
02
07
0<
0C
0J
#53000000
1"
b0000000000000100001110010000000000 *
1-
12
b0000000000000000001100000000000000 4
b0000000000000000001100000000000000 6
17
b0000000000000000001100000000000000 8
b0000000000000100001110010000000000 9
b0000000000000000001011110000000000 :
b0000000000000100001110010000000000 ;
1<
b0000000000000100001110010000000000 =
1C
1J
#53500000
0"
0-
02
07
0<
0C
0J
#54000000
1"
b0000000000000100011010000000000000 *
1-
12
b0000000000000000001100010000000000 4
b0000000000000000001100010000000000 6
17
b0000000000000000001100010000000000 8
b0000000000000100011010000000000000 9
b0000000000000000001100000000000000 :
b0000000000000100011010000000000000 ;
1<
b0000000000000100011010000000000000 =
1C
1J
#54500000
0"
0-
02
07
0<
0C
0J
#55000000
1"
b0000000000000100100110000000000000 *
1-
12
b0000000000000000001100100000000000 4
b0000000000000000001100100000000000 6
17
b0000000000000000001100100000000000 8
b0000000000000100100110000000000000 9
b0000000000000000001100010000000000 :
b0000000000000100100110000000000000 ;
1<
b0000000000000100100110000000000000 =
1C
1J
#55500000
0"
0-
02
07
0<
0C
0J
#56000000
1"
b0000000000000100110010010000000000 *
1-
12
b0000000000000000001100110000000000 4
b0000000000000000001100110000000000 6
17
b0000000000000000001100110000000000 8
b0000000000000100110010010000000000 9
b0000000000000000001100100000000000 :
b0000000000000100110010010000000000 ;
1<
b0000000000000100110010010000000000 =
1C
1J
#56500000
0"
0-
02
07
0<
0C
0J
#57000000
1"
b0000000000000100111110110000000000 *
1-
12
b0000000000000000001101000000000000 4
b0000000000000000001101000000000000 6
17
b0000000000000000001101000000000000 8
b0000000000000100111110110000000000 9
b0000000000000000001100110000000000 :
b0000000000000100111110110000000000 ;
1<
b0000000000000100111110110000000000 =
1C
1J
#57500000
0"
0-
02
07
0<
0C
0J
#58000000
1"
b0000000000000101001011100000000000 *
1-
12
b0000000000000000001101010000000000 4
b0000000000000000001101010000000000 6
17
b0000000000000000001101010000000000 8
b0000000000000101001011100000000000 9
b0000000000000000001101000000000000 :
b0000000000000101001011100000000000 ;
1<
b0000000000000101001011100000000000 =
1C
1J
#58500000
0"
0-
02
07
0<
0C
0J
#59000000
1"
b0000000000000101011000100000000000 *
1-
12
b0000000000000000001101100000000000 4
b0000000000000000001101100000000000 6
17
b0000000000000000001101100000000000 8
b0000000000000101011000100000000000 9
b0000000000000000001101010000000000 :
b0000000000000101011000100000000000 ;
1<
b0000000000000101011000100000000000 =
1C
1J
#59500000
0"
0-
02
07
0<
0C
0J
#60000000
1"
b0000000000000101100101110000000000 *
1-
12
b0000000000000000001101110000000000 4
b0000000000000000001101110000000000 6
17
b0000000000000000001101110000000000 8
b0000000000000101100101110000000000 9
b0000000000000000001101100000000000 :
b0000000000000101100101110000000000 ;
1<
b0000000000000101100101110000000000 =
1C
1J
#60500000
0"
0-
02
07
0<
0C
0J
#61000000
1"
b0000000000000101110011010000000000 *
1-
12
b0000000000000000001110000000000000 4
b0000000000000000001110000000000000 6
17
b0000000000000000001110000000000000 8
b0000000000000101110011010000000000 9
b0000000000000000001101110000000000 :
b0000000000000101110011010000000000 ;
1<
b0000000000000101110011010000000000 =
1C
1J
#61500000
0"
0-
02
07
0<
0C
0J
#62000000
1"
b0000000000000110000001000000000000 *
1-
12
b0000000000000000001110010000000000 4
b0000000000000000001110010000000000 6
17
b0000000000000000001110010000000000 8
b0000000000000110000001000000000000 9
b0000000000000000001110000000000000 :
b0000000000000110000001000000000000 ;
1<
b0000000000000110000001000000000000 =
1C
1J
#62500000
0"
0-
02
07
0<
0C
0J
#63000000
1"
b0000000000000110001111000000000000 *
1-
12
b0000000000000000001110100000000000 4
b0000000000000000001110100000000000 6
17
b0000000000000000001110100000000000 8
b0000000000000110001111000000000000 9
b0000000000000000001110010000000000 :
b0000000000000110001111000000000000 ;
1<
b0000000000000110001111000000000000 =
1C
1J
#63500000
0"
0-
02
07
0<
0C
0J
#64000000
1"
b0000000000000110011101010000000000 *
1-
12
b0000000000000000001110110000000000 4
b0000000000000000001110110000000000 6
17
b0000000000000000001110110000000000 8
b0000000000000110011101010000000000 9
b0000000000000000001110100000000000 :
b0000000000000110011101010000000000 ;
1<
b0000000000000110011101010000000000 =
1C
1J
#64500000
0"
0-
02
07
0<
0C
0J
#65000000
1"
1'
b0000000000000110101011110000000000 *
1+
1-
12
b0000000000000000001111000000000000 4
b0000000000000000001111000000000000 6
17
b0000000000000000001111000000000000 8
b0000000000000110101011110000000000 9
b0000000000000000001110110000000000 :
b0000000000000110101011110000000000 ;
1<
b0000000000000110101011110000000000 =
1?
1C
1F
1J
1M
#65500000
0"
0-
02
07
0<
0C
0J
#66000000
1"
0'
b0000000000000110111010100000000000 *
0+
1-
12
b0000000000000000001111010000000000 4
b0000000000000000001111010000000000 6
17
b0000000000000000001111010000000000 8
b0000000000000110111010100000000000 9
b0000000000000000001111000000000000 :
b0000000000000110111010100000000000 ;
1<
b0000000000000110111010100000000000 =
b0000000000000110101011110000000000 >
0?
b0000000000000110101011110000000000 A
b0000000000000110101011110000000000 B
1C
b0000000000000110101011110000000000 D
0F
1J
0M
#66500000
0"
0-
02
07
0<
0C
0J
#67000000
1"
b0000000000000111001001100000000000 *
1-
12
b0000000000000000001111100000000000 4
b0000000000000000001111100000000000 6
17
b0000000000000000001111100000000000 8
b0000000000000111001001100000000000 9
b0000000000000000001111010000000000 :
b0000000000000111001001100000000000 ;
1<
b0000000000000111001001100000000000 =
1C
1J
#67500000
0"
0-
02
07
0<
0C
0J
#68000000
1"
b0000000000000111011000110000000000 *
1-
12
b0000000000000000001111110000000000 4
b0000000000000000001111110000000000 6
17
b0000000000000000001111110000000000 8
b0000000000000111011000110000000000 9
b0000000000000000001111100000000000 :
b0000000000000111011000110000000000 ;
1<
b0000000000000111011000110000000000 =
1C
1J
#68500000
0"
0-
02
07
0<
0C
0J
#69000000
1"
b0000000000000111101000010000000000 *
1-
12
b0000000000000000010000000000000000 4
b0000000000000000010000000000000000 6
17
b0000000000000000010000000000000000 8
b0000000000000111101000010000000000 9
b0000000000000000001111110000000000 :
b0000000000000111101000010000000000 ;
1<
b0000000000000111101000010000000000 =
1C
1J
#69500000
0"
0-
02
07
0<
0C
0J
#70000000
1"
b0000000000000111111000000000000000 *
1-
12
b0000000000000000010000010000000000 4
b0000000000000000010000010000000000 6
17
b0000000000000000010000010000000000 8
b0000000000000111111000000000000000 9
b0000000000000000010000000000000000 :
b0000000000000111111000000000000000 ;
1<
b0000000000000111111000000000000000 =
1C
1J
#70500000
0"
0-
02
07
0<
0C
0J
#71000000
1"
b0000000000001000001000000000000000 *
1-
12
b0000000000000000010000100000000000 4
b0000000000000000010000100000000000 6
17
b0000000000000000010000100000000000 8
b0000000000001000001000000000000000 9
b0000000000000000010000010000000000 :
b0000000000001000001000000000000000 ;
1<
b0000000000001000001000000000000000 =
1C
1J
#71500000
0"
0-
02
07
0<
0C
0J
#72000000
1"
b0000000000001000011000010000000000 *
1-
12
b0000000000000000010000110000000000 4
b0000000000000000010000110000000000 6
17
b0000000000000000010000110000000000 8
b0000000000001000011000010000000000 9
b0000000000000000010000100000000000 :
b0000000000001000011000010000000000 ;
1<
b0000000000001000011000010000000000 =
1C
1J
#72500000
0"
0-
02
07
0<
0C
0J
#73000000
1"
b0000000000001000101000110000000000 *
1-
12
b0000000000000000010001000000000000 4
b0000000000000000010001000000000000 6
17
b0000000000000000010001000000000000 8
b0000000000001000101000110000000000 9
b0000000000000000010000110000000000 :
b0000000000001000101000110000000000 ;
1<
b0000000000001000101000110000000000 =
1C
1J
#73500000
0"
0-
02
07
0<
0C
0J
#74000000
1"
b0000000000001000111001100000000000 *
1-
12
b0000000000000000010001010000000000 4
b0000000000000000010001010000000000 6
17
b0000000000000000010001010000000000 8
b0000000000001000111001100000000000 9
b0000000000000000010001000000000000 :
b0000000000001000111001100000000000 ;
1<
b0000000000001000111001100000000000 =
1C
1J
#74500000
0"
0-
02
07
0<
0C
0J
#75000000
1"
b0000000000001001001010100000000000 *
1-
12
b0000000000000000010001100000000000 4
b0000000000000000010001100000000000 6
17
b0000000000000000010001100000000000 8
b0000000000001001001010100000000000 9
b0000000000000000010001010000000000 :
b0000000000001001001010100000000000 ;
1<
b0000000000001001001010100000000000 =
1C
1J
#75500000
0"
0-
02
07
0<
0C
0J
